{
  "project_info": {
    "project_number": "886312928510",
    "firebase_url": "https://jugoandroidapp.firebaseio.com",
    "project_id": "jugoandroidapp",
    "storage_bucket": "jugoandroidapp.appspot.com"
  },
  "client": [
    {
      "client_info": {
        "mobilesdk_app_id": "1:886312928510:android:fab17499d792bbb0",
        "android_client_info": {
          "package_name": "com.jugo"
        }
      },
      "oauth_client": [
        {
          "client_id": "886312928510-e27466tmm0ngu361ovsivb4oalma07n6.apps.googleusercontent.com",
          "client_type": 1,
          "android_info": {
            "package_name": "com.jugo",
            "certificate_hash": "87855b515e7898f7ff9184ba22b5d95b7ea72c3b"
          }
        },
        {
          "client_id": "886312928510-64jgektnbam8njm2r6fspcgaqprg32ih.apps.googleusercontent.com",
          "client_type": 3
        }
      ],
      "api_key": [
        {
          "current_key": "AIzaSyAAiVFZJwFUPGC270k81TIl2BxHE9Maiso"
        }
      ],
      "services": {
        "analytics_service": {
          "status": 1
        },
        "appinvite_service": {
          "status": 2,
          "other_platform_oauth_client": [
            {
              "client_id": "886312928510-64jgektnbam8njm2r6fspcgaqprg32ih.apps.googleusercontent.com",
              "client_type": 3
            }
          ]
        },
        "ads_service": {
          "status": 2
        }
      }
    }
  ],
  "configuration_version": "1"
}